{
  "name": "_default_realm",
  "id": 21029,
  "description": "This realm can be used with the sample programs for any of the language bindings.  Each executable (or class) corresponds to an application in this realm.  Note that realm application names are all lowercase which corresponds to the application strings used in the sample connect call.\n\nBy default all the application instances use a shared-memory transport.  To use other transports, supply an identifier string using the \"--identifier\" command line argument with a string of \"\u003ctport\u003e\".",
  "version": 1,
  "realm_server_version": "5.4.0 V9",
  "realm_uuid": "f83d8069-7698-4a0b-9a4b-90ec51037d35",
  "server_uuid": "e8bc8fd4-872f-4fc0-a13f-d1ca5f926f2c",
  "server_time": "",
  "properties": {
    "client_monitor_sample_interval": 60,
    "client_server_heartbeat": 60,
    "client_timeout_server": 180,
    "manage_all_formats": false,
    "monitor_matching_statistics": false,
    "openssl_cipher_suites": "ECDHE-ECDSA-AES256-GCM-SHA384:ECDHE-RSA-AES256-GCM-SHA384",
    "openssl_cipher_suites_custom": "",
    "openssl_cipher_suites_selection": "",
    "openssl_context_options": "0x17134000",
    "openssl_context_options_custom": "",
    "openssl_context_options_selection": "",
    "realm_is_secure": false,
    "server_client_heartbeat": 60,
    "server_timeout_client": 3600,
    "warn_about_insecure_transports": false,
    "max_deployment_history": 0,
    "user_friendly_name": "localhost:8080",
    "com.tibco.ftl.client.subscriber.persistence.retry.duration": 0,
    "com.tibco.ftl.client.publisher.persistence.retry.duration": 0,
    "com.tibco.ftl.client.map.persistence.retry.duration": 0
  },
  "applications": [
    {
      "last_modified": "2018-07-05T08:28:15.315875-07:00",
      "last_modified_millis": 1530804495315,
      "last_modified_by": "anyone",
      "name": "tibsend-shared",
      "id": 1245,
      "description": "",
      "manage_all_formats": false,
      "preload_format_names": [
        "Format-1"
      ],
      "endpoints": [
        {
          "name": "tibsend-endpoint",
          "id": 1249
        },
        {
          "name": "tiblatsend-recvendpoint",
          "id": 1251
        }
      ],
      "instances": [
        {
          "name": "default",
          "id": 1247,
          "description": "The default instance uses shared memory.",
          "matcher": {
            "host": "",
            "identifier": ""
          },
          "endpoints": [
            {
              "dynamic_durable": {},
              "subscribers": [],
              "list_name": "_tibsend-shared_@_default_@_tibsend-endpoint",
              "endpoint_name": "tibsend-endpoint"
            },
            {
              "dynamic_durable": {},
              "subscribers": [],
              "list_name": "_tibsend-shared_@_default_@_tiblatsend-recvendpoint",
              "endpoint_name": "tiblatsend-recvendpoint"
            }
          ]
        }
      ]
    },
    {
      "last_modified": "2018-07-05T08:31:15.3727839-07:00",
      "last_modified_millis": 1530804675372,
      "last_modified_by": "anyone",
      "name": "tibsend",
      "id": 1065,
      "description": "",
      "manage_all_formats": false,
      "preload_format_names": [
        "Format-1"
      ],
      "endpoints": [
        {
          "name": "tibsend-endpoint",
          "id": 1069
        },
        {
          "name": "tibsend-persistentendpoint",
          "id": 1071
        }
      ],
      "instances": [
        {
          "name": "default",
          "id": 1067,
          "description": "The default instance uses shared memory.",
          "matcher": {
            "host": "",
            "identifier": ""
          },
          "endpoints": [
            {
              "dynamic_durable": {},
              "subscribers": [],
              "list_name": "_tibsend_@_default_@_tibsend-endpoint",
              "endpoint_name": "tibsend-endpoint"
            },
            {
              "dynamic_durable": {},
              "subscribers": [],
              "list_name": "_tibsend_@_default_@_tibsend-persistentendpoint",
              "endpoint_name": "tibsend-persistentendpoint"
            }
          ]
        },
        {
          "name": "mcast",
          "id": 1073,
          "description": "",
          "matcher": {
            "host": "",
            "identifier": "mcast"
          },
          "endpoints": [
            {
              "dynamic_durable": {},
              "subscribers": [],
              "list_name": "_tibsend_@_mcast_@_tibsend-persistentendpoint",
              "endpoint_name": "tibsend-persistentendpoint"
            },
            {
              "dynamic_durable": {},
              "subscribers": [],
              "list_name": "_tibsend_@_mcast_@_tibsend-endpoint",
              "endpoint_name": "tibsend-endpoint"
            }
          ]
        },
        {
          "name": "rdma",
          "id": 1079,
          "description": "",
          "matcher": {
            "host": "",
            "identifier": "rdma"
          },
          "endpoints": [
            {
              "dynamic_durable": {},
              "subscribers": [],
              "list_name": "_tibsend_@_rdma_@_tibsend-persistentendpoint",
              "endpoint_name": "tibsend-persistentendpoint"
            },
            {
              "dynamic_durable": {},
              "subscribers": [],
              "list_name": "_tibsend_@_rdma_@_tibsend-endpoint",
              "endpoint_name": "tibsend-endpoint"
            }
          ]
        },
        {
          "name": "tcp",
          "id": 1085,
          "description": "",
          "matcher": {
            "host": "",
            "identifier": "tcp"
          },
          "endpoints": [
            {
              "dynamic_durable": {},
              "subscribers": [],
              "list_name": "_tibsend_@_tcp_@_tibsend-endpoint",
              "endpoint_name": "tibsend-endpoint"
            },
            {
              "dynamic_durable": {},
              "subscribers": [],
              "list_name": "_tibsend_@_tcp_@_tibsend-persistentendpoint",
              "endpoint_name": "tibsend-persistentendpoint"
            }
          ]
        },
        {
          "name": "rudp",
          "id": 1091,
          "description": "",
          "matcher": {
            "host": "",
            "identifier": "rudp"
          },
          "endpoints": [
            {
              "dynamic_durable": {},
              "subscribers": [],
              "list_name": "_tibsend_@_rudp_@_tibsend-persistentendpoint",
              "endpoint_name": "tibsend-persistentendpoint"
            },
            {
              "dynamic_durable": {},
              "subscribers": [],
              "list_name": "_tibsend_@_rudp_@_tibsend-endpoint",
              "endpoint_name": "tibsend-endpoint"
            }
          ]
        }
      ]
    },
    {
      "last_modified": "2018-06-20T06:14:03.449043-07:00",
      "last_modified_millis": 1529500443449,
      "last_modified_by": "anyone",
      "name": "default",
      "id": 201,
      "description": "",
      "manage_all_formats": false,
      "preload_format_names": [],
      "endpoints": [
        {
          "name": "default",
          "id": 202
        }
      ],
      "instances": [
        {
          "name": "default",
          "id": 203,
          "description": "The default instance is used when no other instance's identifiers match.",
          "matcher": {
            "host": "",
            "identifier": ""
          },
          "endpoints": [
            {
              "dynamic_durable": {},
              "subscribers": [],
              "list_name": "_default_@_default_@_default",
              "endpoint_name": "default"
            }
          ]
        }
      ]
    },
    {
      "last_modified": "2018-05-31T03:56:39.1122937-07:00",
      "last_modified_millis": 1527764199112,
      "last_modified_by": "admin",
      "name": "_GroupClient",
      "id": 1041,
      "description": "",
      "manage_all_formats": false,
      "preload_format_names": [],
      "endpoints": [
        {
          "name": "_Common",
          "id": 1043
        }
      ],
      "instances": [
        {
          "name": "default",
          "id": 1039,
          "description": "",
          "matcher": {
            "host": "",
            "identifier": ""
          },
          "endpoints": [
            {
              "dynamic_durable": {},
              "subscribers": [],
              "list_name": "__GroupClient_@_default_@__Common",
              "endpoint_name": "_Common"
            }
          ]
        }
      ]
    },
    {
      "last_modified": "2018-05-31T03:56:39.1122937-07:00",
      "last_modified_millis": 1527764199112,
      "last_modified_by": "admin",
      "name": "tibrequest",
      "id": 1037,
      "description": "",
      "manage_all_formats": false,
      "preload_format_names": [
        "Format-1"
      ],
      "endpoints": [
        {
          "name": "tibrequest-endpoint",
          "id": 1041
        }
      ],
      "instances": [
        {
          "name": "default",
          "id": 1039,
          "description": "The default instance is used when no other instance's identifiers match.",
          "matcher": {
            "host": "",
            "identifier": ""
          },
          "endpoints": [
            {
              "dynamic_durable": {},
              "subscribers": [],
              "list_name": "_tibrequest_@_default_@_tibrequest-endpoint",
              "endpoint_name": "tibrequest-endpoint"
            }
          ]
        },
        {
          "name": "rdma",
          "id": 1043,
          "description": "",
          "matcher": {
            "host": "",
            "identifier": "rdma"
          },
          "endpoints": [
            {
              "dynamic_durable": {},
              "subscribers": [],
              "list_name": "_tibrequest_@_rdma_@_tibrequest-endpoint",
              "endpoint_name": "tibrequest-endpoint"
            }
          ]
        },
        {
          "name": "tcp",
          "id": 1047,
          "description": "",
          "matcher": {
            "host": "",
            "identifier": "tcp"
          },
          "endpoints": [
            {
              "dynamic_durable": {},
              "subscribers": [],
              "list_name": "_tibrequest_@_tcp_@_tibrequest-endpoint",
              "endpoint_name": "tibrequest-endpoint"
            }
          ]
        },
        {
          "name": "rudp",
          "id": 1051,
          "description": "",
          "matcher": {
            "host": "",
            "identifier": "rudp"
          },
          "endpoints": [
            {
              "dynamic_durable": {},
              "subscribers": [],
              "list_name": "_tibrequest_@_rudp_@_tibrequest-endpoint",
              "endpoint_name": "tibrequest-endpoint"
            }
          ]
        },
        {
          "name": "mcast",
          "id": 1055,
          "description": "",
          "matcher": {
            "host": "",
            "identifier": "mcast"
          },
          "endpoints": [
            {
              "dynamic_durable": {},
              "subscribers": [],
              "list_name": "_tibrequest_@_mcast_@_tibrequest-endpoint",
              "endpoint_name": "tibrequest-endpoint"
            }
          ]
        }
      ]
    },
    {
      "last_modified": "2018-05-31T03:56:39.1122937-07:00",
      "last_modified_millis": 1527764199112,
      "last_modified_by": "admin",
      "name": "tiblatsend",
      "id": 1213,
      "description": "",
      "manage_all_formats": false,
      "preload_format_names": [],
      "endpoints": [
        {
          "name": "tiblatsend-recvendpoint",
          "id": 1219
        },
        {
          "name": "tiblatsend-sendendpoint",
          "id": 1217
        }
      ],
      "instances": [
        {
          "name": "default",
          "id": 1215,
          "description": "The default instance is used when no other instance's identifiers match.",
          "matcher": {
            "host": "",
            "identifier": ""
          },
          "endpoints": [
            {
              "dynamic_durable": {},
              "subscribers": [],
              "list_name": "_tiblatsend_@_default_@_tiblatsend-recvendpoint",
              "endpoint_name": "tiblatsend-recvendpoint"
            },
            {
              "dynamic_durable": {},
              "subscribers": [],
              "list_name": "_tiblatsend_@_default_@_tiblatsend-sendendpoint",
              "endpoint_name": "tiblatsend-sendendpoint"
            }
          ]
        },
        {
          "name": "rdma",
          "id": 1221,
          "description": "",
          "matcher": {
            "host": "",
            "identifier": "rdma"
          },
          "endpoints": [
            {
              "dynamic_durable": {},
              "subscribers": [],
              "list_name": "_tiblatsend_@_rdma_@_tiblatsend-recvendpoint",
              "endpoint_name": "tiblatsend-recvendpoint"
            },
            {
              "dynamic_durable": {},
              "subscribers": [],
              "list_name": "_tiblatsend_@_rdma_@_tiblatsend-sendendpoint",
              "endpoint_name": "tiblatsend-sendendpoint"
            }
          ]
        },
        {
          "name": "tcp",
          "id": 1227,
          "description": "",
          "matcher": {
            "host": "",
            "identifier": "tcp"
          },
          "endpoints": [
            {
              "dynamic_durable": {},
              "subscribers": [],
              "list_name": "_tiblatsend_@_tcp_@_tiblatsend-sendendpoint",
              "endpoint_name": "tiblatsend-sendendpoint"
            },
            {
              "dynamic_durable": {},
              "subscribers": [],
              "list_name": "_tiblatsend_@_tcp_@_tiblatsend-recvendpoint",
              "endpoint_name": "tiblatsend-recvendpoint"
            }
          ]
        },
        {
          "name": "mcast",
          "id": 1233,
          "description": "",
          "matcher": {
            "host": "",
            "identifier": "mcast"
          },
          "endpoints": [
            {
              "dynamic_durable": {},
              "subscribers": [],
              "list_name": "_tiblatsend_@_mcast_@_tiblatsend-recvendpoint",
              "endpoint_name": "tiblatsend-recvendpoint"
            },
            {
              "dynamic_durable": {},
              "subscribers": [],
              "list_name": "_tiblatsend_@_mcast_@_tiblatsend-sendendpoint",
              "endpoint_name": "tiblatsend-sendendpoint"
            }
          ]
        },
        {
          "name": "rudp",
          "id": 1239,
          "description": "",
          "matcher": {
            "host": "",
            "identifier": "rudp"
          },
          "endpoints": [
            {
              "dynamic_durable": {},
              "subscribers": [],
              "list_name": "_tiblatsend_@_rudp_@_tiblatsend-sendendpoint",
              "endpoint_name": "tiblatsend-sendendpoint"
            },
            {
              "dynamic_durable": {},
              "subscribers": [],
              "list_name": "_tiblatsend_@_rudp_@_tiblatsend-recvendpoint",
              "endpoint_name": "tiblatsend-recvendpoint"
            }
          ]
        }
      ]
    },
    {
      "last_modified": "2018-07-05T08:29:59.5854023-07:00",
      "last_modified_millis": 1530804599585,
      "last_modified_by": "anyone",
      "name": "tibmapget",
      "id": 1207,
      "description": "",
      "manage_all_formats": false,
      "preload_format_names": [
        "Format-1"
      ],
      "endpoints": [
        {
          "name": "tibmapget-endpoint",
          "id": 1211
        }
      ],
      "instances": [
        {
          "name": "default",
          "id": 1209,
          "description": "The default instance is used when no other instance's identifiers match.",
          "matcher": {
            "host": "",
            "identifier": ""
          },
          "endpoints": [
            {
              "dynamic_durable": {},
              "subscribers": [],
              "list_name": "_tibmapget_@_default_@_tibmapget-endpoint",
              "endpoint_name": "tibmapget-endpoint"
            }
          ]
        }
      ]
    },
    {
      "last_modified": "2018-05-31T03:56:39.1122937-07:00",
      "last_modified_millis": 1527764199112,
      "last_modified_by": "admin",
      "name": "tibrvadapter",
      "id": 1031,
      "description": "This application is setup for a simple demo of the tibrvadapter.",
      "manage_all_formats": false,
      "preload_format_names": [
        "Format-1",
        "RV-to-FTL"
      ],
      "endpoints": [
        {
          "name": "tibrvadapter-endpoint",
          "id": 1035
        }
      ],
      "instances": [
        {
          "name": "default",
          "id": 1033,
          "description": "The tibrvadapter sample is only configured for shared-memory.",
          "matcher": {
            "host": "",
            "identifier": ""
          },
          "endpoints": [
            {
              "dynamic_durable": {},
              "subscribers": [],
              "list_name": "_tibrvadapter_@_default_@_tibrvadapter-endpoint",
              "endpoint_name": "tibrvadapter-endpoint"
            }
          ]
        }
      ]
    },
    {
      "last_modified": "2018-07-05T08:30:38.9193386-07:00",
      "last_modified_millis": 1530804638919,
      "last_modified_by": "anyone",
      "name": "tibmapset",
      "id": 1059,
      "description": "",
      "manage_all_formats": false,
      "preload_format_names": [
        "Format-1"
      ],
      "endpoints": [
        {
          "name": "tibmapset-endpoint",
          "id": 1063
        }
      ],
      "instances": [
        {
          "name": "default",
          "id": 1061,
          "description": "The default instance is used when no other instance's identifiers match.",
          "matcher": {
            "host": "",
            "identifier": ""
          },
          "endpoints": [
            {
              "dynamic_durable": {},
              "subscribers": [],
              "list_name": "_tibmapset_@_default_@_tibmapset-endpoint",
              "endpoint_name": "tibmapset-endpoint"
            }
          ]
        }
      ]
    },
    {
      "last_modified": "2018-05-31T03:56:39.1122937-07:00",
      "last_modified_millis": 1527764199112,
      "last_modified_by": "admin",
      "name": "directlatrecv",
      "id": 1253,
      "description": "",
      "manage_all_formats": false,
      "preload_format_names": [],
      "endpoints": [
        {
          "name": "directlatrecv-sendendpoint",
          "id": 1259
        },
        {
          "name": "directlatrecv-recvendpoint",
          "id": 1257
        }
      ],
      "instances": [
        {
          "name": "default",
          "id": 1255,
          "description": "The default instance is used when no other instance's identifiers match.",
          "matcher": {
            "host": "",
            "identifier": ""
          },
          "endpoints": [
            {
              "dynamic_durable": {},
              "subscribers": [],
              "list_name": "_directlatrecv_@_default_@_directlatrecv-sendendpoint",
              "endpoint_name": "directlatrecv-sendendpoint"
            },
            {
              "dynamic_durable": {},
              "subscribers": [],
              "list_name": "_directlatrecv_@_default_@_directlatrecv-recvendpoint",
              "endpoint_name": "directlatrecv-recvendpoint"
            }
          ]
        }
      ]
    },
    {
      "last_modified": "2018-07-05T08:30:18.6917859-07:00",
      "last_modified_millis": 1530804618691,
      "last_modified_by": "anyone",
      "name": "tiblatrecv-persistent",
      "id": 1097,
      "description": "",
      "manage_all_formats": false,
      "preload_format_names": [],
      "endpoints": [
        {
          "name": "tiblatrecv-sendendpoint",
          "id": 1101
        },
        {
          "name": "tiblatrecv-recvendpoint",
          "id": 1103
        }
      ],
      "instances": [
        {
          "name": "default",
          "id": 1099,
          "description": "The default instance is used when no other instance's identifiers match.",
          "matcher": {
            "host": "",
            "identifier": ""
          },
          "endpoints": [
            {
              "dynamic_durable": {},
              "subscribers": [],
              "list_name": "_tiblatrecv-persistent_@_default_@_tiblatrecv-sendendpoint",
              "endpoint_name": "tiblatrecv-sendendpoint"
            },
            {
              "dynamic_durable": {},
              "subscribers": [],
              "list_name": "_tiblatrecv-persistent_@_default_@_tiblatrecv-recvendpoint",
              "endpoint_name": "tiblatrecv-recvendpoint"
            }
          ]
        }
      ]
    },
    {
      "last_modified": "2018-05-31T03:56:39.1122937-07:00",
      "last_modified_millis": 1527764199112,
      "last_modified_by": "admin",
      "name": "_GroupServer",
      "id": 1047,
      "description": "",
      "manage_all_formats": false,
      "preload_format_names": [],
      "endpoints": [
        {
          "name": "_Common",
          "id": 1049
        }
      ],
      "instances": [
        {
          "name": "PrimaryGroupServer",
          "id": 1051,
          "description": "",
          "matcher": {
            "host": "",
            "identifier": "Primary"
          },
          "endpoints": [
            {
              "dynamic_durable": {},
              "subscribers": [],
              "list_name": "__GroupServer_@_PrimaryGroupServer_@__Common",
              "endpoint_name": "_Common"
            }
          ]
        },
        {
          "name": "BackupGroupServer",
          "id": 1053,
          "description": "",
          "matcher": {
            "host": "",
            "identifier": "Backup"
          },
          "endpoints": [
            {
              "dynamic_durable": {},
              "subscribers": [],
              "list_name": "__GroupServer_@_BackupGroupServer_@__Common",
              "endpoint_name": "_Common"
            }
          ]
        }
      ]
    },
    {
      "last_modified": "2018-05-31T03:56:39.1122937-07:00",
      "last_modified_millis": 1527764199112,
      "last_modified_by": "admin",
      "name": "tibmonitor",
      "id": 1027,
      "description": "Monitoring application used for monitoring subscriber applications",
      "manage_all_formats": false,
      "preload_format_names": [],
      "endpoints": null,
      "instances": [
        {
          "name": "default",
          "id": 1029,
          "description": "The default instance is used when no other instance's identifiers match.",
          "matcher": {
            "host": "",
            "identifier": ""
          },
          "endpoints": null
        }
      ]
    },
    {
      "last_modified": "2018-05-31T03:56:39.1122937-07:00",
      "last_modified_millis": 1527764199112,
      "last_modified_by": "admin",
      "name": "directlatsend",
      "id": 1113,
      "description": "",
      "manage_all_formats": false,
      "preload_format_names": [],
      "endpoints": [
        {
          "name": "directlatsend-sendendpoint",
          "id": 1117
        },
        {
          "name": "directlatsend-recvendpoint",
          "id": 1119
        }
      ],
      "instances": [
        {
          "name": "default",
          "id": 1115,
          "description": "The default instance is used when no other instance's identifiers match.",
          "matcher": {
            "host": "",
            "identifier": ""
          },
          "endpoints": [
            {
              "dynamic_durable": {},
              "subscribers": [],
              "list_name": "_directlatsend_@_default_@_directlatsend-sendendpoint",
              "endpoint_name": "directlatsend-sendendpoint"
            },
            {
              "dynamic_durable": {},
              "subscribers": [],
              "list_name": "_directlatsend_@_default_@_directlatsend-recvendpoint",
              "endpoint_name": "directlatsend-recvendpoint"
            }
          ]
        }
      ]
    },
    {
      "last_modified": "2018-07-18T04:35:52.8857865-07:00",
      "last_modified_millis": 1531913752885,
      "last_modified_by": "anyone",
      "name": "aOrderProducerApp",
      "id": 6083,
      "description": "",
      "manage_all_formats": false,
      "preload_format_names": [
        "Order"
      ],
      "endpoints": [
        {
          "name": "OrderProducerEP",
          "id": 6087,
          "store": "pstore",
          "cluster": "pcluster"
        }
      ],
      "instances": [
        {
          "name": "default",
          "id": 6085,
          "description": "",
          "matcher": {
            "host": "",
            "identifier": ""
          },
          "endpoints": [
            {
              "dynamic_durable": {
                "template": "DurB"
              },
              "subscribers": [],
              "list_name": "_aOrderProducerApp_@_default_@_OrderProducerEP",
              "endpoint_name": "OrderProducerEP"
            }
          ]
        }
      ]
    },
    {
      "last_modified": "2018-07-05T08:29:20.395922-07:00",
      "last_modified_millis": 1530804560395,
      "last_modified_by": "anyone",
      "name": "tibrecv-shared",
      "id": 1261,
      "description": "",
      "manage_all_formats": false,
      "preload_format_names": [
        "Format-1",
        "RV-to-FTL"
      ],
      "endpoints": [
        {
          "name": "tibrecv-endpoint",
          "id": 1267
        },
        {
          "name": "tiblatrecv-sendendpoint",
          "id": 1265
        }
      ],
      "instances": [
        {
          "name": "default",
          "id": 1263,
          "description": "The default instance uses shared memory.",
          "matcher": {
            "host": "",
            "identifier": ""
          },
          "endpoints": [
            {
              "dynamic_durable": {},
              "subscribers": [],
              "list_name": "_tibrecv-shared_@_default_@_tibrecv-endpoint",
              "endpoint_name": "tibrecv-endpoint"
            },
            {
              "dynamic_durable": {},
              "subscribers": [],
              "list_name": "_tibrecv-shared_@_default_@_tiblatrecv-sendendpoint",
              "endpoint_name": "tiblatrecv-sendendpoint"
            }
          ]
        }
      ]
    },
    {
      "last_modified": "2018-05-31T03:56:39.1122937-07:00",
      "last_modified_millis": 1527764199112,
      "last_modified_by": "admin",
      "name": "tiblatrecv",
      "id": 1175,
      "description": "",
      "manage_all_formats": false,
      "preload_format_names": [],
      "endpoints": [
        {
          "name": "tiblatrecv-recvendpoint",
          "id": 1179
        },
        {
          "name": "tiblatrecv-sendendpoint",
          "id": 1181
        }
      ],
      "instances": [
        {
          "name": "default",
          "id": 1177,
          "description": "The default instance is used when no other instance's identifiers match.",
          "matcher": {
            "host": "",
            "identifier": ""
          },
          "endpoints": [
            {
              "dynamic_durable": {},
              "subscribers": [],
              "list_name": "_tiblatrecv_@_default_@_tiblatrecv-recvendpoint",
              "endpoint_name": "tiblatrecv-recvendpoint"
            },
            {
              "dynamic_durable": {},
              "subscribers": [],
              "list_name": "_tiblatrecv_@_default_@_tiblatrecv-sendendpoint",
              "endpoint_name": "tiblatrecv-sendendpoint"
            }
          ]
        },
        {
          "name": "rdma",
          "id": 1183,
          "description": "",
          "matcher": {
            "host": "",
            "identifier": "rdma"
          },
          "endpoints": [
            {
              "dynamic_durable": {},
              "subscribers": [],
              "list_name": "_tiblatrecv_@_rdma_@_tiblatrecv-recvendpoint",
              "endpoint_name": "tiblatrecv-recvendpoint"
            },
            {
              "dynamic_durable": {},
              "subscribers": [],
              "list_name": "_tiblatrecv_@_rdma_@_tiblatrecv-sendendpoint",
              "endpoint_name": "tiblatrecv-sendendpoint"
            }
          ]
        },
        {
          "name": "tcp",
          "id": 1189,
          "description": "",
          "matcher": {
            "host": "",
            "identifier": "tcp"
          },
          "endpoints": [
            {
              "dynamic_durable": {},
              "subscribers": [],
              "list_name": "_tiblatrecv_@_tcp_@_tiblatrecv-recvendpoint",
              "endpoint_name": "tiblatrecv-recvendpoint"
            },
            {
              "dynamic_durable": {},
              "subscribers": [],
              "list_name": "_tiblatrecv_@_tcp_@_tiblatrecv-sendendpoint",
              "endpoint_name": "tiblatrecv-sendendpoint"
            }
          ]
        },
        {
          "name": "mcast",
          "id": 1195,
          "description": "",
          "matcher": {
            "host": "",
            "identifier": "mcast"
          },
          "endpoints": [
            {
              "dynamic_durable": {},
              "subscribers": [],
              "list_name": "_tiblatrecv_@_mcast_@_tiblatrecv-recvendpoint",
              "endpoint_name": "tiblatrecv-recvendpoint"
            },
            {
              "dynamic_durable": {},
              "subscribers": [],
              "list_name": "_tiblatrecv_@_mcast_@_tiblatrecv-sendendpoint",
              "endpoint_name": "tiblatrecv-sendendpoint"
            }
          ]
        },
        {
          "name": "rudp",
          "id": 1201,
          "description": "",
          "matcher": {
            "host": "",
            "identifier": "rudp"
          },
          "endpoints": [
            {
              "dynamic_durable": {},
              "subscribers": [],
              "list_name": "_tiblatrecv_@_rudp_@_tiblatrecv-recvendpoint",
              "endpoint_name": "tiblatrecv-recvendpoint"
            },
            {
              "dynamic_durable": {},
              "subscribers": [],
              "list_name": "_tiblatrecv_@_rudp_@_tiblatrecv-sendendpoint",
              "endpoint_name": "tiblatrecv-sendendpoint"
            }
          ]
        }
      ]
    },
    {
      "last_modified": "2018-07-05T08:29:36.2379439-07:00",
      "last_modified_millis": 1530804576237,
      "last_modified_by": "anyone",
      "name": "tiblatsend-persistent",
      "id": 1105,
      "description": "",
      "manage_all_formats": false,
      "preload_format_names": [],
      "endpoints": [
        {
          "name": "tiblatsend-recvendpoint",
          "id": 1111
        },
        {
          "name": "tiblatsend-sendendpoint",
          "id": 1109
        }
      ],
      "instances": [
        {
          "name": "default",
          "id": 1107,
          "description": "The default instance is used when no other instance's identifiers match.",
          "matcher": {
            "host": "",
            "identifier": ""
          },
          "endpoints": [
            {
              "dynamic_durable": {},
              "subscribers": [],
              "list_name": "_tiblatsend-persistent_@_default_@_tiblatsend-recvendpoint",
              "endpoint_name": "tiblatsend-recvendpoint"
            },
            {
              "dynamic_durable": {},
              "subscribers": [],
              "list_name": "_tiblatsend-persistent_@_default_@_tiblatsend-sendendpoint",
              "endpoint_name": "tiblatsend-sendendpoint"
            }
          ]
        }
      ]
    },
    {
      "last_modified": "2018-05-31T03:56:39.1122937-07:00",
      "last_modified_millis": 1527764199112,
      "last_modified_by": "admin",
      "name": "tibreply",
      "id": 1153,
      "description": "",
      "manage_all_formats": false,
      "preload_format_names": [
        "Format-1"
      ],
      "endpoints": [
        {
          "name": "tibreply-endpoint",
          "id": 1157
        }
      ],
      "instances": [
        {
          "name": "default",
          "id": 1155,
          "description": "The default instance is used when no other instance's identifiers match.",
          "matcher": {
            "host": "",
            "identifier": ""
          },
          "endpoints": [
            {
              "dynamic_durable": {},
              "subscribers": [],
              "list_name": "_tibreply_@_default_@_tibreply-endpoint",
              "endpoint_name": "tibreply-endpoint"
            }
          ]
        },
        {
          "name": "rdma",
          "id": 1159,
          "description": "",
          "matcher": {
            "host": "",
            "identifier": "rdma"
          },
          "endpoints": [
            {
              "dynamic_durable": {},
              "subscribers": [],
              "list_name": "_tibreply_@_rdma_@_tibreply-endpoint",
              "endpoint_name": "tibreply-endpoint"
            }
          ]
        },
        {
          "name": "tcp",
          "id": 1163,
          "description": "",
          "matcher": {
            "host": "",
            "identifier": "tcp"
          },
          "endpoints": [
            {
              "dynamic_durable": {},
              "subscribers": [],
              "list_name": "_tibreply_@_tcp_@_tibreply-endpoint",
              "endpoint_name": "tibreply-endpoint"
            }
          ]
        },
        {
          "name": "rudp",
          "id": 1167,
          "description": "",
          "matcher": {
            "host": "",
            "identifier": "rudp"
          },
          "endpoints": [
            {
              "dynamic_durable": {},
              "subscribers": [],
              "list_name": "_tibreply_@_rudp_@_tibreply-endpoint",
              "endpoint_name": "tibreply-endpoint"
            }
          ]
        },
        {
          "name": "mcast",
          "id": 1171,
          "description": "",
          "matcher": {
            "host": "",
            "identifier": "mcast"
          },
          "endpoints": [
            {
              "dynamic_durable": {},
              "subscribers": [],
              "list_name": "_tibreply_@_mcast_@_tibreply-endpoint",
              "endpoint_name": "tibreply-endpoint"
            }
          ]
        }
      ]
    },
    {
      "last_modified": "2018-07-08T06:43:55.4169274-07:00",
      "last_modified_millis": 1531057435416,
      "last_modified_by": "anyone",
      "name": "aOrderConsumerApp",
      "id": 6077,
      "description": "",
      "manage_all_formats": false,
      "preload_format_names": [
        "Order"
      ],
      "endpoints": [
        {
          "name": "OrderConsumerEP",
          "id": 6081,
          "store": "pstore",
          "cluster": "pcluster"
        },
        {
          "name": "OrderConsumerEP2",
          "id": 16025,
          "store": "pstore",
          "cluster": "pcluster"
        }
      ],
      "instances": [
        {
          "name": "default",
          "id": 6079,
          "description": "",
          "matcher": {
            "host": "",
            "identifier": ""
          },
          "endpoints": [
            {
              "dynamic_durable": {},
              "subscribers": [],
              "list_name": "_aOrderConsumerApp_@_default_@_OrderConsumerEP",
              "endpoint_name": "OrderConsumerEP"
            },
            {
              "dynamic_durable": {
                "template": "DurB"
              },
              "subscribers": [],
              "list_name": "_aOrderConsumerApp_@_default_@_OrderConsumerEP2",
              "endpoint_name": "OrderConsumerEP2"
            }
          ]
        }
      ]
    },
    {
      "last_modified": "2018-07-05T08:31:03.1957413-07:00",
      "last_modified_millis": 1530804663195,
      "last_modified_by": "anyone",
      "name": "tibrecv",
      "id": 1121,
      "description": "",
      "manage_all_formats": false,
      "preload_format_names": [
        "Format-1",
        "RV-to-FTL"
      ],
      "endpoints": [
        {
          "name": "tibrecv-endpoint",
          "id": 1125
        },
        {
          "name": "tibrecv-persistentendpoint",
          "id": 1127
        }
      ],
      "instances": [
        {
          "name": "default",
          "id": 1123,
          "description": "The default instance uses shared memory.",
          "matcher": {
            "host": "",
            "identifier": ""
          },
          "endpoints": [
            {
              "dynamic_durable": {},
              "subscribers": [],
              "list_name": "_tibrecv_@_default_@_tibrecv-endpoint",
              "endpoint_name": "tibrecv-endpoint"
            },
            {
              "dynamic_durable": {},
              "subscribers": [],
              "list_name": "_tibrecv_@_default_@_tibrecv-persistentendpoint",
              "endpoint_name": "tibrecv-persistentendpoint"
            }
          ]
        },
        {
          "name": "mcast",
          "id": 1129,
          "description": "",
          "matcher": {
            "host": "",
            "identifier": "mcast"
          },
          "endpoints": [
            {
              "dynamic_durable": {},
              "subscribers": [],
              "list_name": "_tibrecv_@_mcast_@_tibrecv-endpoint",
              "endpoint_name": "tibrecv-endpoint"
            },
            {
              "dynamic_durable": {},
              "subscribers": [],
              "list_name": "_tibrecv_@_mcast_@_tibrecv-persistentendpoint",
              "endpoint_name": "tibrecv-persistentendpoint"
            }
          ]
        },
        {
          "name": "rdma",
          "id": 1135,
          "description": "",
          "matcher": {
            "host": "",
            "identifier": "rdma"
          },
          "endpoints": [
            {
              "dynamic_durable": {},
              "subscribers": [],
              "list_name": "_tibrecv_@_rdma_@_tibrecv-persistentendpoint",
              "endpoint_name": "tibrecv-persistentendpoint"
            },
            {
              "dynamic_durable": {},
              "subscribers": [],
              "list_name": "_tibrecv_@_rdma_@_tibrecv-endpoint",
              "endpoint_name": "tibrecv-endpoint"
            }
          ]
        },
        {
          "name": "tcp",
          "id": 1141,
          "description": "",
          "matcher": {
            "host": "",
            "identifier": "tcp"
          },
          "endpoints": [
            {
              "dynamic_durable": {},
              "subscribers": [],
              "list_name": "_tibrecv_@_tcp_@_tibrecv-persistentendpoint",
              "endpoint_name": "tibrecv-persistentendpoint"
            },
            {
              "dynamic_durable": {},
              "subscribers": [],
              "list_name": "_tibrecv_@_tcp_@_tibrecv-endpoint",
              "endpoint_name": "tibrecv-endpoint"
            }
          ]
        },
        {
          "name": "rudp",
          "id": 1147,
          "description": "",
          "matcher": {
            "host": "",
            "identifier": "rudp"
          },
          "endpoints": [
            {
              "dynamic_durable": {},
              "subscribers": [],
              "list_name": "_tibrecv_@_rudp_@_tibrecv-persistentendpoint",
              "endpoint_name": "tibrecv-persistentendpoint"
            },
            {
              "dynamic_durable": {},
              "subscribers": [],
              "list_name": "_tibrecv_@_rudp_@_tibrecv-endpoint",
              "endpoint_name": "tibrecv-endpoint"
            }
          ]
        }
      ]
    }
  ],
  "clusters": [
    {
      "last_modified": "2018-07-05T08:36:49.7630282-07:00",
      "last_modified_millis": 1530805009763,
      "last_modified_by": "anyone",
      "name": "pcluster",
      "id": 11073,
      "description": "",
      "client_pserver_heartbeat": 2,
      "client_timeout_pserver": 5,
      "pserver_pserver_heartbeat": 0.5,
      "pserver_timeout_pserver": 3,
      "dr_enabled": false,
      "primary_set": "Set 1",
      "stores": [
        {
          "last_modified": "2018-07-05T08:37:34.3519-07:00",
          "last_modified_millis": 1530805054351,
          "last_modified_by": "anyone",
          "name": "pstore",
          "bytelimit": "",
          "publisher_settings": {
            "mode": "store_confirm_send"
          },
          "dynamic_durable_limit": 0,
          "id": 11081,
          "description": "",
          "durable_templates": [
            {
              "name": "DurB",
              "id": 16045,
              "description": "",
              "type": "standard",
              "ack_settings": {
                "mode": "sync"
              },
              "message_ttl": "0",
              "durable_ttl": "0"
            }
          ],
          "durables": [
            {
              "name": "DurA",
              "id": 16035,
              "description": "",
              "type": "standard",
              "ack_settings": {
                "mode": "sync"
              },
              "message_ttl": "0"
            }
          ],
          "replicated": -1,
          "index": []
        }
      ],
      "pserver_sets": [
        {
          "name": "Set 1",
          "id": 11075,
          "description": "",
          "role": "persist",
          "pservers": [
            {
              "last_modified": "2018-07-05T08:36:59.8050154-07:00",
              "last_modified_millis": 1530805019805,
              "last_modified_by": "anyone",
              "name": "pserver",
              "id": 11077,
              "description": "",
              "weight": 10,
              "client_transports": [
                {
                  "transport": {
                    "last_modified": "0001-01-01T00:00:00Z",
                    "last_modified_millis": 0,
                    "last_modified_by": "",
                    "name": "_client_pri_transport_pserver",
                    "description": "Client primary transport",
                    "relationships": [],
                    "config": {
                      "transport_type": "dtcp",
                      "backlog_full_wait": "0",
                      "recv_spin_limit": "0",
                      "backlog_size": "64mb",
                      "port": "0",
                      "subnet_mask": "",
                      "virtual_name": "_client_pri_transport_pserver_Set 1",
                      "mode": "client"
                    }
                  },
                  "matchers": []
                }
              ],
              "cluster_transport": {
                "transport": {
                  "last_modified": "0001-01-01T00:00:00Z",
                  "last_modified_millis": 0,
                  "last_modified_by": "",
                  "name": "_cluster_transport_pserver",
                  "description": "Cluster transport",
                  "relationships": [],
                  "config": {
                    "transport_type": "dtcp",
                    "backlog_full_wait": "0",
                    "recv_spin_limit": "0",
                    "backlog_size": "256mb",
                    "port": "0",
                    "subnet_mask": "",
                    "virtual_name": "_cluster_transport_pcluster_Set 1",
                    "mode": ""
                  }
                }
              },
              "dr_transport": {
                "transport": {
                  "last_modified": "0001-01-01T00:00:00Z",
                  "last_modified_millis": 0,
                  "last_modified_by": "",
                  "name": "_disaster_recovery_transport_pserver",
                  "description": "Disaster recovery transport",
                  "relationships": [],
                  "config": {
                    "transport_type": "tcp",
                    "backlog_full_wait": "0",
                    "recv_spin_limit": "0",
                    "backlog_size": "256mb",
                    "hosts": [
                      {
                        "host": "",
                        "port": "0",
                        "mode": "connect"
                      }
                    ]
                  }
                }
              }
            }
          ]
        }
      ]
    }
  ],
  "eftl_clusters": [],
  "formats": [
    {
      "last_modified": "0001-01-01T00:00:00Z",
      "last_modified_millis": 0,
      "last_modified_by": "",
      "name": "Format-1",
      "id": 1305,
      "description": "Sample format",
      "fields": [
        {
          "name": "My-Long",
          "type": "long",
          "size": 0
        },
        {
          "name": "My-String",
          "type": "string",
          "size": 0
        },
        {
          "name": "My-Opaque",
          "type": "opaque",
          "size": 0
        },
        {
          "name": "My-Inbox",
          "type": "inbox",
          "size": 0
        }
      ]
    },
    {
      "last_modified": "0001-01-01T00:00:00Z",
      "last_modified_millis": 0,
      "last_modified_by": "",
      "name": "Order",
      "id": 6095,
      "description": "",
      "fields": [
        {
          "name": "OrderID",
          "type": "long",
          "size": 0
        },
        {
          "name": "OrderType",
          "type": "string",
          "size": 0
        },
        {
          "name": "OrderDetails",
          "type": "string",
          "size": 0
        }
      ]
    },
    {
      "last_modified": "0001-01-01T00:00:00Z",
      "last_modified_millis": 0,
      "last_modified_by": "",
      "name": "RV-to-FTL",
      "id": 1307,
      "description": "",
      "fields": [
        {
          "name": "subject-token",
          "type": "string",
          "size": 0
        },
        {
          "name": "DATA",
          "type": "string",
          "size": 0
        }
      ]
    }
  ],
  "transports": [
    {
      "last_modified": "2018-06-23T04:51:10.7528312-07:00",
      "last_modified_millis": 1529754670752,
      "last_modified_by": "anyone",
      "name": "OrderConsumerTP",
      "description": "",
      "relationships": [],
      "id": 6091,
      "config": {
        "transport_type": "dtcp",
        "backlog_full_wait": "0",
        "recv_spin_limit": "0",
        "backlog_size": "64mb",
        "port": "0",
        "subnet_mask": "",
        "virtual_name": "OrderGroup",
        "mode": "client"
      }
    },
    {
      "last_modified": "2018-07-07T09:09:01.7029339-07:00",
      "last_modified_millis": 1530979741702,
      "last_modified_by": "anyone",
      "name": "OrderConsumerTP2",
      "description": "",
      "relationships": [],
      "id": 16027,
      "config": {
        "transport_type": "dtcp",
        "backlog_full_wait": "0",
        "recv_spin_limit": "0",
        "backlog_size": "64mb",
        "port": "0",
        "subnet_mask": "",
        "virtual_name": "OrderGroup",
        "mode": "client"
      }
    },
    {
      "last_modified": "2018-06-23T04:51:18.9857304-07:00",
      "last_modified_millis": 1529754678985,
      "last_modified_by": "anyone",
      "name": "OrderProducerTP",
      "description": "",
      "relationships": [],
      "id": 6089,
      "config": {
        "transport_type": "dtcp",
        "backlog_full_wait": "0",
        "recv_spin_limit": "0",
        "backlog_size": "64mb",
        "port": "0",
        "subnet_mask": "",
        "virtual_name": "OrderGroup",
        "mode": "server"
      }
    },
    {
      "last_modified": "2018-05-31T03:56:39.1122937-07:00",
      "last_modified_millis": 1527764199112,
      "last_modified_by": "admin",
      "name": "_GroupClientTport",
      "description": "",
      "relationships": [
        {
          "transport": "_GroupServerTport1"
        }
      ],
      "id": 1027,
      "config": {
        "transport_type": "dtcp",
        "backlog_full_wait": "0",
        "recv_spin_limit": "0",
        "backlog_size": "64mb",
        "port": "0",
        "subnet_mask": "",
        "virtual_name": "_Primary_Group_Server_VName",
        "mode": "client"
      }
    },
    {
      "last_modified": "2018-05-31T03:56:39.1122937-07:00",
      "last_modified_millis": 1527764199112,
      "last_modified_by": "admin",
      "name": "_GroupClientTport2",
      "description": "",
      "relationships": [
        {
          "transport": "_GroupServerTport2"
        }
      ],
      "id": 1031,
      "config": {
        "transport_type": "dtcp",
        "backlog_full_wait": "0",
        "recv_spin_limit": "0",
        "backlog_size": "64mb",
        "port": "0",
        "subnet_mask": "",
        "virtual_name": "_Backup_Group_server_VName",
        "mode": "client"
      }
    },
    {
      "last_modified": "2018-05-31T03:56:39.1122937-07:00",
      "last_modified_millis": 1527764199112,
      "last_modified_by": "admin",
      "name": "_GroupServerTport1",
      "description": "",
      "relationships": [
        {
          "transport": "_GroupClientTport"
        }
      ],
      "id": 1025,
      "config": {
        "transport_type": "dtcp",
        "backlog_full_wait": "0",
        "recv_spin_limit": "0",
        "backlog_size": "64mb",
        "port": "0",
        "subnet_mask": "",
        "virtual_name": "_Primary_Group_Server_VName",
        "mode": "server"
      }
    },
    {
      "last_modified": "2018-05-31T03:56:39.1122937-07:00",
      "last_modified_millis": 1527764199112,
      "last_modified_by": "admin",
      "name": "_GroupServerTport2",
      "description": "",
      "relationships": [
        {
          "transport": "_GroupClientTport2"
        }
      ],
      "id": 1029,
      "config": {
        "transport_type": "dtcp",
        "backlog_full_wait": "0",
        "recv_spin_limit": "0",
        "backlog_size": "64mb",
        "port": "0",
        "subnet_mask": "",
        "virtual_name": "_Backup_Group_server_VName",
        "mode": "server"
      }
    },
    {
      "last_modified": "2018-05-31T03:56:39.1122937-07:00",
      "last_modified_millis": 1527764199112,
      "last_modified_by": "admin",
      "name": "dshm-ping",
      "description": "",
      "relationships": [],
      "id": 1347,
      "config": {
        "transport_type": "dshm",
        "backlog_full_wait": "31536000",
        "recv_spin_limit": "0.01",
        "backlog_size": "1mb",
        "segment_name": "dshm-ping",
        "size": "1mb",
        "globalscope": false
      }
    },
    {
      "last_modified": "2018-05-31T03:56:39.1122937-07:00",
      "last_modified_millis": 1527764199112,
      "last_modified_by": "admin",
      "name": "dshm-pong",
      "description": "",
      "relationships": [],
      "id": 1339,
      "config": {
        "transport_type": "dshm",
        "backlog_full_wait": "31536000",
        "recv_spin_limit": "0.01",
        "backlog_size": "1mb",
        "segment_name": "dshm-pong",
        "size": "1mb",
        "globalscope": false
      }
    },
    {
      "last_modified": "2018-05-31T03:56:39.1122937-07:00",
      "last_modified_millis": 1527764199112,
      "last_modified_by": "admin",
      "name": "dtcp-tport",
      "description": "",
      "relationships": [],
      "id": 1341,
      "config": {
        "transport_type": "dtcp",
        "backlog_full_wait": "0",
        "recv_spin_limit": "0",
        "backlog_size": "64mb",
        "port": "0",
        "subnet_mask": "",
        "mode": ""
      }
    },
    {
      "last_modified": "2018-05-31T03:56:39.1122937-07:00",
      "last_modified_millis": 1527764199112,
      "last_modified_by": "admin",
      "name": "mcast-latrecv-tport",
      "description": "",
      "relationships": [
        {
          "transport": "mcast-latsend-tport"
        }
      ],
      "id": 1333,
      "config": {
        "transport_type": "mcast",
        "backlog_full_wait": "0",
        "recv_spin_limit": "0.01",
        "backlog_size": "64mb",
        "enable_inbox_support": false,
        "sgrp": "239.255.1.1",
        "lgrps": [
          "239.255.1.1"
        ],
        "host": "*",
        "port": "5679",
        "packet_send_limit": "50000",
        "reliability_time": "3",
        "udp_sender_port": "",
        "udp_receiver_port": "",
        "mtu_size": "",
        "rxc_loss_tolerance": "",
        "rxc_advise_only": "",
        "enable_loopback": true
      }
    },
    {
      "last_modified": "2018-05-31T03:56:39.1122937-07:00",
      "last_modified_millis": 1527764199112,
      "last_modified_by": "admin",
      "name": "mcast-latsend-tport",
      "description": "",
      "relationships": [
        {
          "transport": "mcast-latrecv-tport"
        }
      ],
      "id": 1319,
      "config": {
        "transport_type": "mcast",
        "backlog_full_wait": "0",
        "recv_spin_limit": "0.01",
        "backlog_size": "64mb",
        "enable_inbox_support": false,
        "sgrp": "239.255.1.1",
        "lgrps": [
          "239.255.1.1"
        ],
        "host": "*",
        "port": "5679",
        "packet_send_limit": "50000",
        "reliability_time": "3",
        "udp_sender_port": "",
        "udp_receiver_port": "",
        "mtu_size": "",
        "rxc_loss_tolerance": "",
        "rxc_advise_only": "",
        "enable_loopback": true
      }
    },
    {
      "last_modified": "2018-05-31T03:56:39.1122937-07:00",
      "last_modified_millis": 1527764199112,
      "last_modified_by": "admin",
      "name": "mcast-recv-tport",
      "description": "",
      "relationships": [
        {
          "transport": "mcast-send-tport"
        }
      ],
      "id": 1345,
      "config": {
        "transport_type": "mcast",
        "backlog_full_wait": "0",
        "recv_spin_limit": "0",
        "backlog_size": "64mb",
        "enable_inbox_support": false,
        "lgrps": [
          "239.255.1.1"
        ],
        "host": "*",
        "port": "5679",
        "packet_send_limit": "50000",
        "reliability_time": "3",
        "udp_sender_port": "",
        "udp_receiver_port": "",
        "mtu_size": "",
        "rxc_loss_tolerance": "",
        "rxc_advise_only": "",
        "enable_loopback": true
      }
    },
    {
      "last_modified": "2018-05-31T03:56:39.1122937-07:00",
      "last_modified_millis": 1527764199112,
      "last_modified_by": "admin",
      "name": "mcast-reply-tport",
      "description": "",
      "relationships": [
        {
          "transport": "mcast-request-tport"
        }
      ],
      "id": 1315,
      "config": {
        "transport_type": "mcast",
        "backlog_full_wait": "0",
        "recv_spin_limit": "0",
        "backlog_size": "64mb",
        "enable_inbox_support": true,
        "sgrp": "239.255.1.2",
        "lgrps": [
          "239.255.1.2"
        ],
        "host": "*",
        "port": "5679",
        "packet_send_limit": "50000",
        "reliability_time": "3",
        "udp_sender_port": "",
        "udp_receiver_port": "",
        "mtu_size": "",
        "rxc_loss_tolerance": "",
        "rxc_advise_only": "",
        "enable_loopback": true
      }
    },
    {
      "last_modified": "2018-05-31T03:56:39.1122937-07:00",
      "last_modified_millis": 1527764199112,
      "last_modified_by": "admin",
      "name": "mcast-request-tport",
      "description": "",
      "relationships": [
        {
          "transport": "mcast-reply-tport"
        }
      ],
      "id": 1343,
      "config": {
        "transport_type": "mcast",
        "backlog_full_wait": "0",
        "recv_spin_limit": "0",
        "backlog_size": "64mb",
        "enable_inbox_support": true,
        "sgrp": "239.255.1.2",
        "lgrps": [
          "239.255.1.2"
        ],
        "host": "*",
        "port": "5679",
        "packet_send_limit": "50000",
        "reliability_time": "3",
        "udp_sender_port": "",
        "udp_receiver_port": "",
        "mtu_size": "",
        "rxc_loss_tolerance": "",
        "rxc_advise_only": "",
        "enable_loopback": true
      }
    },
    {
      "last_modified": "2018-05-31T03:56:39.1122937-07:00",
      "last_modified_millis": 1527764199112,
      "last_modified_by": "admin",
      "name": "mcast-send-tport",
      "description": "",
      "relationships": [
        {
          "transport": "mcast-recv-tport"
        }
      ],
      "id": 1349,
      "config": {
        "transport_type": "mcast",
        "backlog_full_wait": "0",
        "recv_spin_limit": "0",
        "backlog_size": "64mb",
        "enable_inbox_support": false,
        "sgrp": "239.255.1.1",
        "host": "*",
        "port": "5679",
        "packet_send_limit": "50000",
        "reliability_time": "3",
        "udp_sender_port": "",
        "udp_receiver_port": "",
        "mtu_size": "",
        "rxc_loss_tolerance": "",
        "rxc_advise_only": "",
        "enable_loopback": true
      }
    },
    {
      "last_modified": "2018-05-31T03:56:39.1122937-07:00",
      "last_modified_millis": 1527764199112,
      "last_modified_by": "admin",
      "name": "rdma-latrecv-tport",
      "description": "Replace \"host1\" with your RDMA address.",
      "relationships": [
        {
          "transport": "rdma-latsend-tport"
        }
      ],
      "id": 1353,
      "config": {
        "transport_type": "rdma",
        "backlog_full_wait": "0",
        "recv_spin_limit": "0.01",
        "backlog_size": "64mb",
        "hosts": [
          {
            "host": "host1",
            "port": "5679",
            "mode": "listen"
          }
        ]
      }
    },
    {
      "last_modified": "2018-05-31T03:56:39.1122937-07:00",
      "last_modified_millis": 1527764199112,
      "last_modified_by": "admin",
      "name": "rdma-latsend-tport",
      "description": "Replace \"host1\" with your RDMA address.",
      "relationships": [
        {
          "transport": "rdma-latrecv-tport"
        }
      ],
      "id": 1317,
      "config": {
        "transport_type": "rdma",
        "backlog_full_wait": "0",
        "recv_spin_limit": "0.01",
        "backlog_size": "64mb",
        "hosts": [
          {
            "host": "host1",
            "port": "5679",
            "mode": "connect"
          }
        ]
      }
    },
    {
      "last_modified": "2018-05-31T03:56:39.1122937-07:00",
      "last_modified_millis": 1527764199112,
      "last_modified_by": "admin",
      "name": "rdma-recv-tport",
      "description": "Replace \"host1\" with your RDMA address.",
      "relationships": [
        {
          "transport": "rdma-send-tport"
        }
      ],
      "id": 1337,
      "config": {
        "transport_type": "rdma",
        "backlog_full_wait": "0",
        "recv_spin_limit": "0",
        "backlog_size": "64mb",
        "hosts": [
          {
            "host": "host1",
            "port": "5679",
            "mode": "listen"
          }
        ]
      }
    },
    {
      "last_modified": "2018-05-31T03:56:39.1122937-07:00",
      "last_modified_millis": 1527764199112,
      "last_modified_by": "admin",
      "name": "rdma-reply-tport",
      "description": "Replace \"host1\" with your RDMA address.",
      "relationships": [
        {
          "transport": "rdma-request-tport"
        }
      ],
      "id": 1357,
      "config": {
        "transport_type": "rdma",
        "backlog_full_wait": "0",
        "recv_spin_limit": "0",
        "backlog_size": "64mb",
        "hosts": [
          {
            "host": "host1",
            "port": "5679",
            "mode": "listen"
          }
        ]
      }
    },
    {
      "last_modified": "2018-05-31T03:56:39.1122937-07:00",
      "last_modified_millis": 1527764199112,
      "last_modified_by": "admin",
      "name": "rdma-request-tport",
      "description": "Replace \"host1\" with your RDMA address.",
      "relationships": [
        {
          "transport": "rdma-reply-tport"
        }
      ],
      "id": 1329,
      "config": {
        "transport_type": "rdma",
        "backlog_full_wait": "0",
        "recv_spin_limit": "0",
        "backlog_size": "64mb",
        "hosts": [
          {
            "host": "host1",
            "port": "5679",
            "mode": "connect"
          }
        ]
      }
    },
    {
      "last_modified": "2018-05-31T03:56:39.1122937-07:00",
      "last_modified_millis": 1527764199112,
      "last_modified_by": "admin",
      "name": "rdma-send-tport",
      "description": "Replace \"host1\" with your RDMA address.",
      "relationships": [
        {
          "transport": "rdma-recv-tport"
        }
      ],
      "id": 1321,
      "config": {
        "transport_type": "rdma",
        "backlog_full_wait": "0",
        "recv_spin_limit": "0",
        "backlog_size": "64mb",
        "hosts": [
          {
            "host": "host1",
            "port": "5679",
            "mode": "connect"
          }
        ]
      }
    },
    {
      "last_modified": "2018-05-31T03:56:39.1122937-07:00",
      "last_modified_millis": 1527764199112,
      "last_modified_by": "admin",
      "name": "rudp-latrecv-tport",
      "description": "",
      "relationships": [
        {
          "transport": "rudp-latsend-tport"
        }
      ],
      "id": 1335,
      "config": {
        "transport_type": "rudp",
        "backlog_full_wait": "0",
        "recv_spin_limit": "0.01",
        "backlog_size": "64mb",
        "udp_sndbuf": "16mb",
        "udp_rcvbuf": "16mb",
        "hosts": [
          {
            "host": "localhost",
            "port": "5680",
            "mode": "listen"
          }
        ]
      }
    },
    {
      "last_modified": "2018-05-31T03:56:39.1122937-07:00",
      "last_modified_millis": 1527764199112,
      "last_modified_by": "admin",
      "name": "rudp-latsend-tport",
      "description": "",
      "relationships": [
        {
          "transport": "rudp-latrecv-tport"
        }
      ],
      "id": 1309,
      "config": {
        "transport_type": "rudp",
        "backlog_full_wait": "0",
        "recv_spin_limit": "0.01",
        "backlog_size": "64mb",
        "udp_sndbuf": "16mb",
        "udp_rcvbuf": "16mb",
        "hosts": [
          {
            "host": "localhost",
            "port": "5680",
            "mode": "connect"
          }
        ]
      }
    },
    {
      "last_modified": "2018-05-31T03:56:39.1122937-07:00",
      "last_modified_millis": 1527764199112,
      "last_modified_by": "admin",
      "name": "rudp-recv-tport",
      "description": "",
      "relationships": [
        {
          "transport": "rudp-send-tport"
        }
      ],
      "id": 1331,
      "config": {
        "transport_type": "rudp",
        "backlog_full_wait": "0",
        "recv_spin_limit": "0",
        "backlog_size": "64mb",
        "udp_sndbuf": "16mb",
        "udp_rcvbuf": "16mb",
        "hosts": [
          {
            "host": "localhost",
            "port": "5680",
            "mode": "listen"
          }
        ]
      }
    },
    {
      "last_modified": "2018-05-31T03:56:39.1122937-07:00",
      "last_modified_millis": 1527764199112,
      "last_modified_by": "admin",
      "name": "rudp-reply-tport",
      "description": "",
      "relationships": [
        {
          "transport": "rudp-request-tport"
        }
      ],
      "id": 1355,
      "config": {
        "transport_type": "rudp",
        "backlog_full_wait": "0",
        "recv_spin_limit": "0",
        "backlog_size": "64mb",
        "udp_sndbuf": "16mb",
        "udp_rcvbuf": "16mb",
        "hosts": [
          {
            "host": "localhost",
            "port": "5680",
            "mode": "listen"
          }
        ]
      }
    },
    {
      "last_modified": "2018-05-31T03:56:39.1122937-07:00",
      "last_modified_millis": 1527764199112,
      "last_modified_by": "admin",
      "name": "rudp-request-tport",
      "description": "",
      "relationships": [
        {
          "transport": "rudp-reply-tport"
        }
      ],
      "id": 1311,
      "config": {
        "transport_type": "rudp",
        "backlog_full_wait": "0",
        "recv_spin_limit": "0",
        "backlog_size": "64mb",
        "udp_sndbuf": "16mb",
        "udp_rcvbuf": "16mb",
        "hosts": [
          {
            "host": "localhost",
            "port": "5680",
            "mode": "connect"
          }
        ]
      }
    },
    {
      "last_modified": "2018-05-31T03:56:39.1122937-07:00",
      "last_modified_millis": 1527764199112,
      "last_modified_by": "admin",
      "name": "rudp-send-tport",
      "description": "",
      "relationships": [
        {
          "transport": "rudp-recv-tport"
        }
      ],
      "id": 1313,
      "config": {
        "transport_type": "rudp",
        "backlog_full_wait": "0",
        "recv_spin_limit": "0",
        "backlog_size": "64mb",
        "udp_sndbuf": "16mb",
        "udp_rcvbuf": "16mb",
        "hosts": [
          {
            "host": "localhost",
            "port": "5680",
            "mode": "connect"
          }
        ]
      }
    },
    {
      "last_modified": "2018-05-31T03:56:39.1122937-07:00",
      "last_modified_millis": 1527764199112,
      "last_modified_by": "admin",
      "name": "shm-latency-tport",
      "description": "",
      "relationships": [],
      "id": 1351,
      "config": {
        "transport_type": "shm",
        "backlog_full_wait": "0",
        "recv_spin_limit": "0.01",
        "backlog_size": "64mb",
        "segment_name": "latency",
        "size": "64mb",
        "globalscope": false
      }
    },
    {
      "last_modified": "2018-05-31T03:56:39.1122937-07:00",
      "last_modified_millis": 1527764199112,
      "last_modified_by": "admin",
      "name": "shm-requestreply-tport",
      "description": "",
      "relationships": [],
      "id": 1325,
      "config": {
        "transport_type": "shm",
        "backlog_full_wait": "0",
        "recv_spin_limit": "0.01",
        "backlog_size": "64mb",
        "segment_name": "requestreply",
        "size": "64mb",
        "globalscope": false
      }
    },
    {
      "last_modified": "2018-05-31T03:56:39.1122937-07:00",
      "last_modified_millis": 1527764199112,
      "last_modified_by": "admin",
      "name": "shm-sendrecv-tport",
      "description": "",
      "relationships": [],
      "id": 1323,
      "config": {
        "transport_type": "shm",
        "backlog_full_wait": "0",
        "recv_spin_limit": "0.01",
        "backlog_size": "64mb",
        "segment_name": "sendrecv",
        "size": "64mb",
        "globalscope": false
      }
    }
  ],
  "connector_lists": [
    {
      "name": "_tibsend-shared_@_default_@_tibsend-endpoint",
      "id": 0,
      "description": "",
      "connectors": []
    },
    {
      "name": "_tibsend-shared_@_default_@_tiblatsend-recvendpoint",
      "id": 0,
      "description": "",
      "connectors": [
        {
          "transport": "shm-latency-tport",
          "receive": true,
          "receive_inbox": false,
          "send": false,
          "send_inbox": false
        }
      ]
    },
    {
      "name": "_tibsend_@_default_@_tibsend-endpoint",
      "id": 0,
      "description": "",
      "connectors": [
        {
          "transport": "shm-sendrecv-tport",
          "receive": false,
          "receive_inbox": false,
          "send": true,
          "send_inbox": false
        }
      ]
    },
    {
      "name": "_tibsend_@_default_@_tibsend-persistentendpoint",
      "id": 0,
      "description": "",
      "connectors": [
        {
          "transport": "shm-sendrecv-tport",
          "receive": false,
          "receive_inbox": false,
          "send": true,
          "send_inbox": false
        }
      ]
    },
    {
      "name": "_tibsend_@_mcast_@_tibsend-persistentendpoint",
      "id": 1077,
      "description": "",
      "connectors": [
        {
          "transport": "mcast-send-tport",
          "receive": false,
          "receive_inbox": false,
          "send": true,
          "send_inbox": false
        }
      ]
    },
    {
      "name": "_tibsend_@_mcast_@_tibsend-endpoint",
      "id": 1075,
      "description": "",
      "connectors": [
        {
          "transport": "mcast-send-tport",
          "receive": false,
          "receive_inbox": false,
          "send": true,
          "send_inbox": false
        }
      ]
    },
    {
      "name": "_tibsend_@_rdma_@_tibsend-persistentendpoint",
      "id": 1083,
      "description": "",
      "connectors": [
        {
          "transport": "rdma-send-tport",
          "receive": false,
          "receive_inbox": false,
          "send": true,
          "send_inbox": false
        }
      ]
    },
    {
      "name": "_tibsend_@_rdma_@_tibsend-endpoint",
      "id": 1081,
      "description": "",
      "connectors": [
        {
          "transport": "rdma-send-tport",
          "receive": false,
          "receive_inbox": false,
          "send": true,
          "send_inbox": false
        }
      ]
    },
    {
      "name": "_tibsend_@_tcp_@_tibsend-endpoint",
      "id": 1087,
      "description": "",
      "connectors": [
        {
          "transport": "dtcp-tport",
          "receive": false,
          "receive_inbox": false,
          "send": true,
          "send_inbox": false
        }
      ]
    },
    {
      "name": "_tibsend_@_tcp_@_tibsend-persistentendpoint",
      "id": 1089,
      "description": "",
      "connectors": [
        {
          "transport": "dtcp-tport",
          "receive": false,
          "receive_inbox": false,
          "send": true,
          "send_inbox": false
        }
      ]
    },
    {
      "name": "_tibsend_@_rudp_@_tibsend-persistentendpoint",
      "id": 1093,
      "description": "",
      "connectors": [
        {
          "transport": "rudp-send-tport",
          "receive": false,
          "receive_inbox": false,
          "send": true,
          "send_inbox": false
        }
      ]
    },
    {
      "name": "_tibsend_@_rudp_@_tibsend-endpoint",
      "id": 1095,
      "description": "",
      "connectors": [
        {
          "transport": "rudp-send-tport",
          "receive": false,
          "receive_inbox": false,
          "send": true,
          "send_inbox": false
        }
      ]
    },
    {
      "name": "_default_@_default_@_default",
      "id": 0,
      "description": "",
      "connectors": [
        {
          "transport": "dshm-ping",
          "receive": true,
          "receive_inbox": true,
          "send": true,
          "send_inbox": true
        }
      ]
    },
    {
      "name": "__GroupClient_@_default_@__Common",
      "id": 16025,
      "description": "",
      "connectors": [
        {
          "transport": "_GroupClientTport",
          "receive": true,
          "receive_inbox": true,
          "send": true,
          "send_inbox": true
        },
        {
          "transport": "_GroupClientTport2",
          "receive": true,
          "receive_inbox": true,
          "send": true,
          "send_inbox": true
        }
      ]
    },
    {
      "name": "_tibrequest_@_default_@_tibrequest-endpoint",
      "id": 0,
      "description": "",
      "connectors": [
        {
          "transport": "shm-requestreply-tport",
          "receive": false,
          "receive_inbox": true,
          "send": true,
          "send_inbox": false
        }
      ]
    },
    {
      "name": "_tibrequest_@_rdma_@_tibrequest-endpoint",
      "id": 1045,
      "description": "",
      "connectors": [
        {
          "transport": "rdma-request-tport",
          "receive": false,
          "receive_inbox": true,
          "send": true,
          "send_inbox": false
        }
      ]
    },
    {
      "name": "_tibrequest_@_tcp_@_tibrequest-endpoint",
      "id": 1049,
      "description": "",
      "connectors": [
        {
          "transport": "dtcp-tport",
          "receive": false,
          "receive_inbox": true,
          "send": true,
          "send_inbox": false
        }
      ]
    },
    {
      "name": "_tibrequest_@_rudp_@_tibrequest-endpoint",
      "id": 1053,
      "description": "",
      "connectors": [
        {
          "transport": "rudp-request-tport",
          "receive": false,
          "receive_inbox": true,
          "send": true,
          "send_inbox": false
        }
      ]
    },
    {
      "name": "_tibrequest_@_mcast_@_tibrequest-endpoint",
      "id": 1057,
      "description": "",
      "connectors": [
        {
          "transport": "mcast-request-tport",
          "receive": false,
          "receive_inbox": true,
          "send": true,
          "send_inbox": false
        }
      ]
    },
    {
      "name": "_tiblatsend_@_default_@_tiblatsend-recvendpoint",
      "id": 0,
      "description": "",
      "connectors": [
        {
          "transport": "shm-latency-tport",
          "receive": true,
          "receive_inbox": false,
          "send": false,
          "send_inbox": false
        }
      ]
    },
    {
      "name": "_tiblatsend_@_default_@_tiblatsend-sendendpoint",
      "id": 0,
      "description": "",
      "connectors": [
        {
          "transport": "shm-latency-tport",
          "receive": false,
          "receive_inbox": false,
          "send": true,
          "send_inbox": false
        }
      ]
    },
    {
      "name": "_tiblatsend_@_rdma_@_tiblatsend-recvendpoint",
      "id": 1223,
      "description": "",
      "connectors": [
        {
          "transport": "rdma-latsend-tport",
          "receive": true,
          "receive_inbox": false,
          "send": false,
          "send_inbox": false
        }
      ]
    },
    {
      "name": "_tiblatsend_@_rdma_@_tiblatsend-sendendpoint",
      "id": 1225,
      "description": "",
      "connectors": [
        {
          "transport": "rdma-latsend-tport",
          "receive": false,
          "receive_inbox": false,
          "send": true,
          "send_inbox": false
        }
      ]
    },
    {
      "name": "_tiblatsend_@_tcp_@_tiblatsend-sendendpoint",
      "id": 1229,
      "description": "",
      "connectors": [
        {
          "transport": "dtcp-tport",
          "receive": false,
          "receive_inbox": false,
          "send": true,
          "send_inbox": false
        }
      ]
    },
    {
      "name": "_tiblatsend_@_tcp_@_tiblatsend-recvendpoint",
      "id": 1231,
      "description": "",
      "connectors": [
        {
          "transport": "dtcp-tport",
          "receive": true,
          "receive_inbox": false,
          "send": false,
          "send_inbox": false
        }
      ]
    },
    {
      "name": "_tiblatsend_@_mcast_@_tiblatsend-recvendpoint",
      "id": 1235,
      "description": "",
      "connectors": [
        {
          "transport": "mcast-latsend-tport",
          "receive": true,
          "receive_inbox": false,
          "send": false,
          "send_inbox": false
        }
      ]
    },
    {
      "name": "_tiblatsend_@_mcast_@_tiblatsend-sendendpoint",
      "id": 1237,
      "description": "",
      "connectors": [
        {
          "transport": "mcast-latsend-tport",
          "receive": false,
          "receive_inbox": false,
          "send": true,
          "send_inbox": false
        }
      ]
    },
    {
      "name": "_tiblatsend_@_rudp_@_tiblatsend-sendendpoint",
      "id": 1243,
      "description": "",
      "connectors": [
        {
          "transport": "rudp-latsend-tport",
          "receive": false,
          "receive_inbox": false,
          "send": true,
          "send_inbox": false
        }
      ]
    },
    {
      "name": "_tiblatsend_@_rudp_@_tiblatsend-recvendpoint",
      "id": 1241,
      "description": "",
      "connectors": [
        {
          "transport": "rudp-latsend-tport",
          "receive": true,
          "receive_inbox": false,
          "send": false,
          "send_inbox": false
        }
      ]
    },
    {
      "name": "_tibmapget_@_default_@_tibmapget-endpoint",
      "id": 0,
      "description": "",
      "connectors": []
    },
    {
      "name": "_tibrvadapter_@_default_@_tibrvadapter-endpoint",
      "id": 0,
      "description": "",
      "connectors": [
        {
          "transport": "shm-sendrecv-tport",
          "receive": true,
          "receive_inbox": false,
          "send": true,
          "send_inbox": false
        }
      ]
    },
    {
      "name": "_tibmapset_@_default_@_tibmapset-endpoint",
      "id": 0,
      "description": "",
      "connectors": []
    },
    {
      "name": "_directlatrecv_@_default_@_directlatrecv-sendendpoint",
      "id": 0,
      "description": "",
      "connectors": [
        {
          "transport": "dshm-pong",
          "receive": false,
          "receive_inbox": false,
          "send": true,
          "send_inbox": false
        }
      ]
    },
    {
      "name": "_directlatrecv_@_default_@_directlatrecv-recvendpoint",
      "id": 0,
      "description": "",
      "connectors": [
        {
          "transport": "dshm-ping",
          "receive": true,
          "receive_inbox": false,
          "send": false,
          "send_inbox": false
        }
      ]
    },
    {
      "name": "_tiblatrecv-persistent_@_default_@_tiblatrecv-sendendpoint",
      "id": 0,
      "description": "",
      "connectors": [
        {
          "transport": "shm-latency-tport",
          "receive": false,
          "receive_inbox": false,
          "send": true,
          "send_inbox": false
        }
      ]
    },
    {
      "name": "_tiblatrecv-persistent_@_default_@_tiblatrecv-recvendpoint",
      "id": 0,
      "description": "",
      "connectors": [
        {
          "transport": "shm-latency-tport",
          "receive": true,
          "receive_inbox": false,
          "send": false,
          "send_inbox": false
        }
      ]
    },
    {
      "name": "__GroupServer_@_PrimaryGroupServer_@__Common",
      "id": 16027,
      "description": "",
      "connectors": [
        {
          "transport": "_GroupServerTport1",
          "receive": true,
          "receive_inbox": true,
          "send": true,
          "send_inbox": true
        }
      ]
    },
    {
      "name": "__GroupServer_@_BackupGroupServer_@__Common",
      "id": 16029,
      "description": "",
      "connectors": [
        {
          "transport": "_GroupServerTport2",
          "receive": true,
          "receive_inbox": true,
          "send": true,
          "send_inbox": true
        },
        {
          "transport": "_GroupClientTport",
          "receive": true,
          "receive_inbox": true,
          "send": true,
          "send_inbox": true
        }
      ]
    },
    {
      "name": "_directlatsend_@_default_@_directlatsend-sendendpoint",
      "id": 0,
      "description": "",
      "connectors": [
        {
          "transport": "dshm-ping",
          "receive": false,
          "receive_inbox": false,
          "send": true,
          "send_inbox": false
        }
      ]
    },
    {
      "name": "_directlatsend_@_default_@_directlatsend-recvendpoint",
      "id": 0,
      "description": "",
      "connectors": [
        {
          "transport": "dshm-pong",
          "receive": true,
          "receive_inbox": false,
          "send": false,
          "send_inbox": false
        }
      ]
    },
    {
      "name": "_aOrderProducerApp_@_default_@_OrderProducerEP",
      "id": 0,
      "description": "",
      "connectors": [
        {
          "transport": "OrderProducerTP",
          "receive": true,
          "receive_inbox": true,
          "send": true,
          "send_inbox": true
        }
      ]
    },
    {
      "name": "_tibrecv-shared_@_default_@_tibrecv-endpoint",
      "id": 0,
      "description": "",
      "connectors": []
    },
    {
      "name": "_tibrecv-shared_@_default_@_tiblatrecv-sendendpoint",
      "id": 0,
      "description": "",
      "connectors": [
        {
          "transport": "shm-latency-tport",
          "receive": false,
          "receive_inbox": false,
          "send": true,
          "send_inbox": false
        }
      ]
    },
    {
      "name": "_tiblatrecv_@_default_@_tiblatrecv-recvendpoint",
      "id": 0,
      "description": "",
      "connectors": [
        {
          "transport": "shm-latency-tport",
          "receive": true,
          "receive_inbox": false,
          "send": false,
          "send_inbox": false
        }
      ]
    },
    {
      "name": "_tiblatrecv_@_default_@_tiblatrecv-sendendpoint",
      "id": 0,
      "description": "",
      "connectors": [
        {
          "transport": "shm-latency-tport",
          "receive": false,
          "receive_inbox": false,
          "send": true,
          "send_inbox": false
        }
      ]
    },
    {
      "name": "_tiblatrecv_@_rdma_@_tiblatrecv-recvendpoint",
      "id": 1185,
      "description": "",
      "connectors": [
        {
          "transport": "rdma-latrecv-tport",
          "receive": true,
          "receive_inbox": false,
          "send": false,
          "send_inbox": false
        }
      ]
    },
    {
      "name": "_tiblatrecv_@_rdma_@_tiblatrecv-sendendpoint",
      "id": 1187,
      "description": "",
      "connectors": [
        {
          "transport": "rdma-latrecv-tport",
          "receive": false,
          "receive_inbox": false,
          "send": true,
          "send_inbox": false
        }
      ]
    },
    {
      "name": "_tiblatrecv_@_tcp_@_tiblatrecv-recvendpoint",
      "id": 1191,
      "description": "",
      "connectors": [
        {
          "transport": "dtcp-tport",
          "receive": true,
          "receive_inbox": false,
          "send": false,
          "send_inbox": false
        }
      ]
    },
    {
      "name": "_tiblatrecv_@_tcp_@_tiblatrecv-sendendpoint",
      "id": 1193,
      "description": "",
      "connectors": [
        {
          "transport": "dtcp-tport",
          "receive": false,
          "receive_inbox": false,
          "send": true,
          "send_inbox": false
        }
      ]
    },
    {
      "name": "_tiblatrecv_@_mcast_@_tiblatrecv-recvendpoint",
      "id": 1197,
      "description": "",
      "connectors": [
        {
          "transport": "mcast-latrecv-tport",
          "receive": true,
          "receive_inbox": false,
          "send": false,
          "send_inbox": false
        }
      ]
    },
    {
      "name": "_tiblatrecv_@_mcast_@_tiblatrecv-sendendpoint",
      "id": 1199,
      "description": "",
      "connectors": [
        {
          "transport": "mcast-latrecv-tport",
          "receive": false,
          "receive_inbox": false,
          "send": true,
          "send_inbox": false
        }
      ]
    },
    {
      "name": "_tiblatrecv_@_rudp_@_tiblatrecv-recvendpoint",
      "id": 1203,
      "description": "",
      "connectors": [
        {
          "transport": "rudp-latrecv-tport",
          "receive": true,
          "receive_inbox": false,
          "send": false,
          "send_inbox": false
        }
      ]
    },
    {
      "name": "_tiblatrecv_@_rudp_@_tiblatrecv-sendendpoint",
      "id": 1205,
      "description": "",
      "connectors": [
        {
          "transport": "rudp-latrecv-tport",
          "receive": false,
          "receive_inbox": false,
          "send": true,
          "send_inbox": false
        }
      ]
    },
    {
      "name": "_tiblatsend-persistent_@_default_@_tiblatsend-recvendpoint",
      "id": 0,
      "description": "",
      "connectors": [
        {
          "transport": "shm-latency-tport",
          "receive": true,
          "receive_inbox": false,
          "send": false,
          "send_inbox": false
        }
      ]
    },
    {
      "name": "_tiblatsend-persistent_@_default_@_tiblatsend-sendendpoint",
      "id": 0,
      "description": "",
      "connectors": [
        {
          "transport": "shm-latency-tport",
          "receive": false,
          "receive_inbox": false,
          "send": true,
          "send_inbox": false
        }
      ]
    },
    {
      "name": "_tibreply_@_default_@_tibreply-endpoint",
      "id": 0,
      "description": "",
      "connectors": [
        {
          "transport": "shm-requestreply-tport",
          "receive": true,
          "receive_inbox": false,
          "send": false,
          "send_inbox": true
        }
      ]
    },
    {
      "name": "_tibreply_@_rdma_@_tibreply-endpoint",
      "id": 1161,
      "description": "",
      "connectors": [
        {
          "transport": "rdma-reply-tport",
          "receive": true,
          "receive_inbox": false,
          "send": false,
          "send_inbox": true
        }
      ]
    },
    {
      "name": "_tibreply_@_tcp_@_tibreply-endpoint",
      "id": 1165,
      "description": "",
      "connectors": [
        {
          "transport": "dtcp-tport",
          "receive": true,
          "receive_inbox": false,
          "send": false,
          "send_inbox": true
        }
      ]
    },
    {
      "name": "_tibreply_@_rudp_@_tibreply-endpoint",
      "id": 1169,
      "description": "",
      "connectors": [
        {
          "transport": "rudp-reply-tport",
          "receive": true,
          "receive_inbox": false,
          "send": false,
          "send_inbox": true
        }
      ]
    },
    {
      "name": "_tibreply_@_mcast_@_tibreply-endpoint",
      "id": 1173,
      "description": "",
      "connectors": [
        {
          "transport": "mcast-reply-tport",
          "receive": true,
          "receive_inbox": false,
          "send": false,
          "send_inbox": true
        }
      ]
    },
    {
      "name": "_aOrderConsumerApp_@_default_@_OrderConsumerEP",
      "id": 0,
      "description": "",
      "connectors": [
        {
          "transport": "OrderConsumerTP",
          "receive": true,
          "receive_inbox": true,
          "send": true,
          "send_inbox": true
        }
      ]
    },
    {
      "name": "_aOrderConsumerApp_@_default_@_OrderConsumerEP2",
      "id": 0,
      "description": "",
      "connectors": [
        {
          "transport": "OrderConsumerTP",
          "receive": true,
          "receive_inbox": true,
          "send": true,
          "send_inbox": true
        }
      ]
    },
    {
      "name": "_tibrecv_@_default_@_tibrecv-endpoint",
      "id": 0,
      "description": "",
      "connectors": [
        {
          "transport": "shm-sendrecv-tport",
          "receive": true,
          "receive_inbox": false,
          "send": false,
          "send_inbox": false
        }
      ]
    },
    {
      "name": "_tibrecv_@_default_@_tibrecv-persistentendpoint",
      "id": 0,
      "description": "",
      "connectors": [
        {
          "transport": "shm-sendrecv-tport",
          "receive": true,
          "receive_inbox": false,
          "send": false,
          "send_inbox": false
        }
      ]
    },
    {
      "name": "_tibrecv_@_mcast_@_tibrecv-endpoint",
      "id": 1131,
      "description": "",
      "connectors": [
        {
          "transport": "mcast-recv-tport",
          "receive": true,
          "receive_inbox": false,
          "send": false,
          "send_inbox": false
        }
      ]
    },
    {
      "name": "_tibrecv_@_mcast_@_tibrecv-persistentendpoint",
      "id": 1133,
      "description": "",
      "connectors": [
        {
          "transport": "mcast-recv-tport",
          "receive": true,
          "receive_inbox": false,
          "send": false,
          "send_inbox": false
        }
      ]
    },
    {
      "name": "_tibrecv_@_rdma_@_tibrecv-persistentendpoint",
      "id": 1139,
      "description": "",
      "connectors": [
        {
          "transport": "rdma-recv-tport",
          "receive": true,
          "receive_inbox": false,
          "send": false,
          "send_inbox": false
        }
      ]
    },
    {
      "name": "_tibrecv_@_rdma_@_tibrecv-endpoint",
      "id": 1137,
      "description": "",
      "connectors": [
        {
          "transport": "rdma-recv-tport",
          "receive": true,
          "receive_inbox": false,
          "send": false,
          "send_inbox": false
        }
      ]
    },
    {
      "name": "_tibrecv_@_tcp_@_tibrecv-persistentendpoint",
      "id": 1143,
      "description": "",
      "connectors": [
        {
          "transport": "dtcp-tport",
          "receive": true,
          "receive_inbox": false,
          "send": false,
          "send_inbox": false
        }
      ]
    },
    {
      "name": "_tibrecv_@_tcp_@_tibrecv-endpoint",
      "id": 1145,
      "description": "",
      "connectors": [
        {
          "transport": "dtcp-tport",
          "receive": true,
          "receive_inbox": false,
          "send": false,
          "send_inbox": false
        }
      ]
    },
    {
      "name": "_tibrecv_@_rudp_@_tibrecv-persistentendpoint",
      "id": 1151,
      "description": "",
      "connectors": [
        {
          "transport": "rudp-recv-tport",
          "receive": true,
          "receive_inbox": false,
          "send": false,
          "send_inbox": false
        }
      ]
    },
    {
      "name": "_tibrecv_@_rudp_@_tibrecv-endpoint",
      "id": 1149,
      "description": "",
      "connectors": [
        {
          "transport": "rudp-recv-tport",
          "receive": true,
          "receive_inbox": false,
          "send": false,
          "send_inbox": false
        }
      ]
    }
  ],
  "product_data": {
    "_ftlui": {
      "transport_groups": {
        "OrderConsumerTP": "OrderGroup",
        "OrderConsumerTP2": "OrderGroup",
        "OrderProducerTP": "OrderGroup"
      }
    }
  }
}